#FIG 3.2  Produced by xfig version 3.2.5a
Landscape
Center
Inches
Letter  
40.00
Single
-2
1200 2
6 1200 -9000 2550 0
2 1 0 1 0 7 50 -1 -1 0.000 0 0 7 1 1 2
	1 1 5.00 225.00 225.00
	1 1 5.00 225.00 225.00
	 1350 -9000 1350 0
4 0 0 50 -1 0 60 0.0000 2 720 1020 1500 -4200 75\001
-6
6 6075 -3000 7425 0
2 1 0 1 0 7 50 -1 -1 0.000 0 0 -1 1 1 2
	1 1 5.00 225.00 225.00
	1 1 5.00 225.00 225.00
	 6225 -3000 6225 0
4 0 0 50 -1 0 60 0.0000 2 720 1020 6375 -1200 25\001
-6
6 0 -12000 10500 -9000
6 9150 -12000 10500 -9000
2 1 0 1 0 7 50 -1 -1 0.000 0 0 -1 1 1 2
	1 1 5.00 225.00 225.00
	1 1 5.00 225.00 225.00
	 9300 -12000 9300 -9000
4 0 0 50 -1 0 60 0.0000 2 720 1020 9450 -10275 25\001
-6
2 2 0 1 0 7 50 -1 19 0.000 0 0 7 0 0 5
	 0 -12000 9000 -12000 9000 -9000 0 -9000 0 -12000
-6
6 3000 -7125 12000 -3000
6 3000 -7080 12000 -6111
2 1 0 1 0 7 50 -1 -1 0.000 0 0 -1 1 1 2
	1 1 5.00 225.00 225.00
	1 1 5.00 225.00 225.00
	 3000 -6225 12000 -6225
4 0 0 50 -1 0 60 0.0000 2 720 1020 6750 -6375 75\001
-6
2 2 0 1 0 7 50 -1 19 0.000 0 0 -1 0 0 5
	 3000 -6000 12000 -6000 12000 -3000 3000 -3000 3000 -6000
-6
2 2 0 1 0 7 50 -1 -1 0.000 0 0 -1 0 0 5
	 0 -12000 12000 -12000 12000 0 0 0 0 -12000
4 0 0 52 -1 0 60 0.0000 2 960 6465 12375 -5850 $q\\cdot\\nu = 0$\001
4 0 0 52 -1 0 60 0.0000 2 825 2610 4575 -12375 $h=0$\001
4 0 0 52 -1 0 60 0.0000 2 960 6465 3450 975 $q\\cdot\\nu = 0$\001
4 0 0 52 -1 0 60 0.0000 2 960 6465 -3675 -6000 $q\\cdot\\nu = 0$\001
