#FIG 3.2  Produced by xfig version 3.2.5a
Landscape
Center
Inches
Letter  
40.00
Single
-2
1200 2
6 7275 -5175 9600 -3225
6 7275 -5175 9600 -3825
2 1 0 1 0 7 45 -1 -1 0.000 0 0 -1 1 0 2
	1 1 5.00 225.00 225.00
	 8175 -5100 8175 -4800
4 0 0 45 -1 0 60 0.0000 2 720 2295 7275 -3900 9.375\001
-6
2 1 0 1 0 7 45 -1 -1 0.000 0 0 -1 1 0 2
	1 1 5.00 225.00 225.00
	 8175 -3300 8175 -3600
-6
6 4987 -3600 8565 0
2 1 0 1 0 7 50 -1 19 0.000 0 0 -1 1 1 2
	1 1 5.00 225.00 225.00
	1 1 5.00 225.00 225.00
	 5100 -3600 5100 0
4 0 0 50 -1 0 60 0.0000 2 720 3315 5250 -1575 29.6875\001
-6
6 -2175 -8400 1275 0
2 1 0 1 0 7 50 -1 19 0.000 0 0 -1 1 1 2
	1 1 5.00 225.00 225.00
	1 1 5.00 225.00 225.00
	 1125 0 1125 -8400
4 0 0 50 -1 0 60 0.0000 2 720 3315 -2175 -3600 70.3125\001
-6
6 1425 -9750 5025 -8550
2 1 0 1 0 7 50 -1 -1 0.000 0 0 -1 1 1 2
	1 1 5.00 225.00 225.00
	1 1 5.00 225.00 225.00
	 1425 -8700 5025 -8700
4 0 0 50 -1 0 60 0.0000 2 720 2295 2100 -9000 31.25\001
-6
6 5025 -8175 12000 -6975
2 1 0 1 0 7 50 -1 -1 0.000 0 0 -1 1 1 2
	1 1 5.00 225.00 225.00
	1 1 5.00 225.00 225.00
	 5025 -7125 12000 -7125
4 0 0 50 -1 0 60 0.0000 2 720 2295 7125 -7425 56.25\001
-6
2 2 0 1 0 7 50 -1 -1 0.000 0 0 -1 0 0 5
	 0 -12000 12000 -12000 12000 0 0 0 0 -12000
2 1 0 1 0 7 50 -1 19 0.000 0 0 -1 0 0 10
	 1425 0 1425 -8400 5025 -8400 5025 -4800 12000 -4800 12000 -3600
	 3825 -3600 3825 -7200 2625 -7200 2625 0
4 0 0 50 -1 0 60 0.0000 2 960 5955 -3150 -5700 $q\\cdot\\nu=0$\001
4 0 0 50 -1 0 60 0.0000 2 960 5955 12075 -5700 $q\\cdot\\nu=0$\001
4 0 0 50 -1 0 60 0.0000 2 960 5955 4350 -12300 $q\\cdot\\nu=0$\001
4 0 0 50 -1 0 60 0.0000 2 825 2610 5100 825 $h=0$\001
